<?xml version="1.0" encoding="UTF-8" standalone="no"?>
<svg
   xmlns:dc="http://purl.org/dc/elements/1.1/"
   xmlns:cc="http://creativecommons.org/ns#"
   xmlns:rdf="http://www.w3.org/1999/02/22-rdf-syntax-ns#"
   xmlns:svg="http://www.w3.org/2000/svg"
   xmlns="http://www.w3.org/2000/svg"
   xmlns:xlink="http://www.w3.org/1999/xlink"
   xmlns:sodipodi="http://sodipodi.sourceforge.net/DTD/sodipodi-0.dtd"
   xmlns:inkscape="http://www.inkscape.org/namespaces/inkscape"
   inkscape:version="1.0 (4035a4fb49, 2020-05-01)"
   sodipodi:docname="logo.svg"
   id="svg342"
   version="1.2"
   viewBox="0 0 142.5 70.534103"
   height="70.534103pt"
   width="142.5pt">
  <metadata
     id="metadata346">
    <rdf:RDF>
      <cc:Work
         rdf:about="">
        <dc:format>image/svg+xml</dc:format>
        <dc:type
           rdf:resource="http://purl.org/dc/dcmitype/StillImage" />
        <dc:title></dc:title>
      </cc:Work>
    </rdf:RDF>
  </metadata>
  <sodipodi:namedview
     inkscape:current-layer="svg342"
     inkscape:window-maximized="1"
     inkscape:window-y="-8"
     inkscape:window-x="1912"
     inkscape:cy="76.375001"
     inkscape:cx="132.57286"
     inkscape:zoom="2.8333333"
     fit-margin-bottom="0"
     fit-margin-right="0"
     fit-margin-left="0"
     fit-margin-top="0"
     showgrid="false"
     id="namedview344"
     inkscape:window-height="1017"
     inkscape:window-width="1920"
     inkscape:pageshadow="2"
     inkscape:pageopacity="0"
     guidetolerance="10"
     gridtolerance="10"
     objecttolerance="10"
     borderopacity="1"
     bordercolor="#666666"
     pagecolor="#ffffff" />
  <defs
     id="defs91">
    <g
       id="g74">
      <symbol
         id="glyph0-0"
         overflow="visible">
        <path
           id="path2"
           d="m 0.9375,-20.21875 h 12.25 V 0 h -12.25 z m 9.796875,18.015625 v -15.78125 h -7.3125 v 15.78125 z m 0,0"
           style="stroke:none" />
      </symbol>
      <symbol
         id="glyph0-1"
         overflow="visible">
        <path
           id="path5"
           d="m 0.90625,-19.796875 h 3.171875 v 5.640625 H 0.90625 Z m 5.046875,0 h 3.15625 v 5.640625 h -3.15625 z m 0,0"
           style="stroke:none" />
      </symbol>
      <symbol
         id="glyph0-2"
         overflow="visible">
        <path
           id="path8"
           d="m 1.46875,-19.796875 h 4.25 l 6.09375,13.25 6.109375,-13.25 h 4.21875 V 0 H 18.03125 V -11.234375 L 12.796875,0 H 10.8125 L 5.609375,-11.234375 V 0 H 1.46875 Z m 0,0"
           style="stroke:none" />
      </symbol>
      <symbol
         id="glyph0-3"
         overflow="visible">
        <path
           id="path11"
           d="m 6.546875,0.421875 c -1.667969,0 -3.027344,-0.41796875 -4.078125,-1.25 -1.042969,-0.84375 -1.5625,-1.992187 -1.5625,-3.453125 0,-1.507812 0.5,-2.679688 1.5,-3.515625 1,-0.84375 2.414062,-1.265625 4.25,-1.265625 0.8125,0 1.582031,0.089844 2.3125,0.265625 0.738281,0.167969 1.390625,0.402344 1.953125,0.703125 V -8.4375 c 0,-0.851562 -0.304687,-1.476562 -0.90625,-1.875 -0.605469,-0.394531 -1.527344,-0.59375 -2.765625,-0.59375 -1.667969,0 -3.199219,0.3125 -4.59375,0.9375 v -3.109375 C 3.257812,-13.347656 4.039062,-13.570312 5,-13.75 c 0.96875,-0.175781 1.9375,-0.265625 2.90625,-0.265625 2.445312,0 4.273438,0.507813 5.484375,1.515625 1.207031,1.011719 1.8125,2.421875 1.8125,4.234375 V 0 H 11.1875 V -1.25 C 10.03125,-0.132812 8.484375,0.421875 6.546875,0.421875 Z m 1.15625,-2.828125 c 0.695313,0 1.328125,-0.128906 1.890625,-0.390625 0.570312,-0.269531 1.015625,-0.640625 1.328125,-1.109375 V -5.265625 C 9.960938,-5.910156 8.90625,-6.234375 7.75,-6.234375 c -0.792969,0 -1.402344,0.167969 -1.828125,0.5 -0.417969,0.335937 -0.625,0.820313 -0.625,1.453125 0,0.605469 0.207031,1.070312 0.625,1.390625 0.414063,0.324219 1.007813,0.484375 1.78125,0.484375 z m 0,0"
           style="stroke:none" />
      </symbol>
      <symbol
         id="glyph0-4"
         overflow="visible">
        <path
           id="path14"
           d="M 1.46875,-20.921875 H 5.75 V -7.84375 l 4.953125,-5.75 h 4.953125 l -5.75,6.625 L 16.359375,0 H 11.40625 L 5.75,-6.109375 V 0 H 1.46875 Z m 0,0"
           style="stroke:none" />
      </symbol>
      <symbol
         id="glyph0-5"
         overflow="visible">
        <path
           id="path17"
           d="m 3.828125,-15.6875 c -0.667969,0 -1.230469,-0.210938 -1.6875,-0.640625 -0.449219,-0.4375 -0.671875,-0.988281 -0.671875,-1.65625 0,-0.632813 0.222656,-1.171875 0.671875,-1.609375 0.457031,-0.445312 1.019531,-0.671875 1.6875,-0.671875 0.65625,0 1.207031,0.226563 1.65625,0.671875 0.457031,0.4375 0.6875,0.976562 0.6875,1.609375 0,0.667969 -0.230469,1.21875 -0.6875,1.65625 -0.449219,0.429687 -1,0.640625 -1.65625,0.640625 z m -2.15625,2.09375 H 5.96875 V 0 H 1.671875 Z m 0,0"
           style="stroke:none" />
      </symbol>
      <symbol
         id="glyph0-6"
         overflow="visible">
        <path
           id="path20"
           d="m 1.46875,-13.59375 h 4.140625 v 1.671875 c 0.625,-0.695313 1.363281,-1.21875 2.21875,-1.5625 0.851563,-0.351563 1.753906,-0.53125 2.703125,-0.53125 1.851562,0 3.234375,0.496094 4.140625,1.484375 0.914063,0.992188 1.375,2.328125 1.375,4.015625 V 0 H 11.78125 v -8.046875 c 0,-1.75 -0.8125,-2.625 -2.4375,-2.625 -0.71875,0 -1.390625,0.179687 -2.015625,0.53125 C 6.710938,-9.796875 6.1875,-9.285156 5.75,-8.609375 V 0 H 1.46875 Z m 0,0"
           style="stroke:none" />
      </symbol>
      <symbol
         id="glyph0-7"
         overflow="visible">
        <path
           id="path23"
           d="M 8.78125,6.515625 C 7.875,6.515625 6.960938,6.425781 6.046875,6.25 5.128906,6.082031 4.359375,5.859375 3.734375,5.578125 V 2.4375 C 5.191406,3.070312 6.875,3.390625 8.78125,3.390625 c 1.519531,0 2.609375,-0.3125 3.265625,-0.9375 0.664063,-0.617187 1,-1.546875 1,-2.796875 V -1.1875 c -0.585937,0.53125 -1.304687,0.933594 -2.15625,1.203125 -0.84375,0.269531 -1.746094,0.40625 -2.703125,0.40625 -1.398438,0 -2.648438,-0.308594 -3.75,-0.921875 -1.105469,-0.613281 -1.96875,-1.46875 -2.59375,-2.5625 -0.625,-1.09375 -0.9375,-2.335938 -0.9375,-3.734375 0,-1.4375 0.304688,-2.703125 0.921875,-3.796875 0.613281,-1.09375 1.460937,-1.9375 2.546875,-2.53125 1.082031,-0.59375 2.320312,-0.890625 3.71875,-0.890625 1.0625,0 2,0.152344 2.8125,0.453125 0.8125,0.304688 1.570312,0.78125 2.28125,1.4375 v -1.46875 h 4.140625 V -0.875 c 0,2.351562 -0.699219,4.171875 -2.09375,5.453125 -1.398437,1.289063 -3.546875,1.9375 -6.453125,1.9375 z m 0.421875,-9.40625 c 0.882813,0 1.679687,-0.238281 2.390625,-0.71875 0.707031,-0.476563 1.191406,-1.113281 1.453125,-1.90625 V -8.0625 C 12.742188,-8.863281 12.25,-9.5 11.5625,-9.96875 c -0.6875,-0.46875 -1.476562,-0.703125 -2.359375,-0.703125 -1.15625,0 -2.101563,0.351563 -2.828125,1.046875 -0.71875,0.699219 -1.078125,1.632812 -1.078125,2.796875 0,1.1875 0.359375,2.140625 1.078125,2.859375 0.726562,0.71875 1.671875,1.078125 2.828125,1.078125 z m 0,0"
           style="stroke:none" />
      </symbol>
      <symbol
         id="glyph1-0"
         overflow="visible">
        <path
           id="path26"
           d="M 0.25,-5.359375 H 3.5 V 0 H 0.25 Z m 2.59375,4.765625 v -4.171875 h -1.9375 v 4.171875 z m 0,0"
           style="stroke:none" />
      </symbol>
      <symbol
         id="glyph1-1"
         overflow="visible">
        <path
           id="path29"
           d="m 2.34375,-5.25 h 1.125 L 5.5625,0 H 4.390625 l -0.4375,-1.140625 H 1.859375 L 1.40625,0 H 0.234375 Z m 1.296875,3.203125 -0.734375,-2 -0.75,2 z m 0,0"
           style="stroke:none" />
      </symbol>
      <symbol
         id="glyph1-2"
         overflow="visible">
        <path
           id="path32"
           d=""
           style="stroke:none" />
      </symbol>
      <symbol
         id="glyph1-3"
         overflow="visible">
        <path
           id="path35"
           d="M 0.390625,-5.25 H 2.59375 c 0.601562,0 1.082031,0.15625 1.4375,0.46875 0.351562,0.3125 0.53125,0.746094 0.53125,1.296875 0,0.574219 -0.179688,1.015625 -0.53125,1.328125 -0.355469,0.304688 -0.835938,0.453125 -1.4375,0.453125 H 1.53125 V 0 H 0.390625 Z M 2.4375,-2.65625 c 0.644531,0 0.96875,-0.273438 0.96875,-0.828125 0,-0.300781 -0.089844,-0.507813 -0.265625,-0.625 -0.167969,-0.125 -0.402344,-0.1875 -0.703125,-0.1875 H 1.53125 v 1.640625 z m 0,0"
           style="stroke:none" />
      </symbol>
      <symbol
         id="glyph1-4"
         overflow="visible">
        <path
           id="path38"
           d="m 0.390625,-5.25 h 2.28125 c 0.59375,0 1.054687,0.152344 1.390625,0.453125 0.332031,0.292969 0.5,0.71875 0.5,1.28125 0,0.386719 -0.09375,0.71875 -0.28125,1 -0.179688,0.273437 -0.429688,0.46875 -0.75,0.59375 L 4.53125,0 H 3.359375 l -0.9375,-1.78125 H 1.53125 V 0 H 0.390625 Z m 2.078125,2.515625 c 0.289062,0 0.519531,-0.0625 0.6875,-0.1875 0.164062,-0.125 0.25,-0.320313 0.25,-0.59375 0,-0.289063 -0.085938,-0.492187 -0.25,-0.609375 -0.167969,-0.113281 -0.398438,-0.171875 -0.6875,-0.171875 h -0.9375 v 1.5625 z m 0,0"
           style="stroke:none" />
      </symbol>
      <symbol
         id="glyph1-5"
         overflow="visible">
        <path
           id="path41"
           d="M 3.046875,0.109375 C 2.523438,0.109375 2.050781,-0.00390625 1.625,-0.234375 1.195312,-0.460938 0.859375,-0.78125 0.609375,-1.1875 c -0.25,-0.414062 -0.375,-0.894531 -0.375,-1.4375 0,-0.53125 0.125,-1.003906 0.375,-1.421875 0.25,-0.414063 0.585937,-0.738281 1.015625,-0.96875 0.425781,-0.226563 0.898438,-0.34375 1.421875,-0.34375 0.53125,0 1.003906,0.117187 1.421875,0.34375 0.425781,0.230469 0.757812,0.554687 1,0.96875 0.25,0.417969 0.375,0.890625 0.375,1.421875 0,0.542969 -0.125,1.023438 -0.375,1.4375 -0.242188,0.40625 -0.574219,0.726562 -1,0.953125 -0.417969,0.23046875 -0.890625,0.34375 -1.421875,0.34375 z m 0,-1.046875 c 0.300781,0 0.578125,-0.066406 0.828125,-0.203125 0.25,-0.144531 0.445312,-0.34375 0.59375,-0.59375 C 4.613281,-1.984375 4.6875,-2.28125 4.6875,-2.625 4.6875,-2.957031 4.613281,-3.25 4.46875,-3.5 4.320312,-3.757812 4.125,-3.957031 3.875,-4.09375 3.632812,-4.226562 3.359375,-4.296875 3.046875,-4.296875 c -0.3125,0 -0.59375,0.070313 -0.84375,0.203125 C 1.960938,-3.957031 1.769531,-3.757812 1.625,-3.5 c -0.148438,0.25 -0.21875,0.542969 -0.21875,0.875 0,0.34375 0.070312,0.640625 0.21875,0.890625 0.144531,0.25 0.34375,0.449219 0.59375,0.59375 0.25,0.136719 0.523438,0.203125 0.828125,0.203125 z m 0,0"
           style="stroke:none" />
      </symbol>
      <symbol
         id="glyph1-6"
         overflow="visible">
        <path
           id="path44"
           d="M 0.390625,-5.25 H 4.03125 v 0.953125 h -2.5 V -3.0625 H 3.375 v 0.875 H 1.53125 V 0 H 0.390625 Z m 0,0"
           style="stroke:none" />
      </symbol>
      <symbol
         id="glyph1-7"
         overflow="visible">
        <path
           id="path47"
           d="M 0.390625,-5.25 H 4.03125 v 0.953125 h -2.5 v 1.21875 H 3.375 v 0.90625 H 1.53125 v 1.21875 h 2.5 V 0 H 0.390625 Z m 0,0"
           style="stroke:none" />
      </symbol>
      <symbol
         id="glyph1-8"
         overflow="visible">
        <path
           id="path50"
           d="m 1.96875,0.109375 c -0.324219,0 -0.640625,-0.03125 -0.953125,-0.09375 -0.3125,-0.0507812 -0.574219,-0.128906 -0.78125,-0.234375 v -1 c 0.269531,0.125 0.546875,0.226562 0.828125,0.296875 0.289062,0.0625 0.566406,0.09375 0.828125,0.09375 0.289063,0 0.507813,-0.050781 0.65625,-0.15625 0.144531,-0.101563 0.21875,-0.242187 0.21875,-0.421875 0,-0.125 -0.039063,-0.234375 -0.109375,-0.328125 -0.074219,-0.09375 -0.183594,-0.175781 -0.328125,-0.25 C 2.191406,-2.054688 1.972656,-2.148438 1.671875,-2.265625 1.179688,-2.472656 0.828125,-2.695312 0.609375,-2.9375 0.390625,-3.1875 0.28125,-3.492188 0.28125,-3.859375 c 0,-0.300781 0.078125,-0.5625 0.234375,-0.78125 0.164063,-0.226563 0.390625,-0.40625 0.671875,-0.53125 0.289062,-0.125 0.628906,-0.1875 1.015625,-0.1875 0.3125,0 0.585937,0.027344 0.828125,0.078125 0.238281,0.042969 0.472656,0.117188 0.703125,0.21875 v 0.984375 C 3.296875,-4.296875 2.851562,-4.40625 2.40625,-4.40625 c -0.28125,0 -0.5,0.046875 -0.65625,0.140625 -0.15625,0.09375 -0.234375,0.234375 -0.234375,0.421875 0,0.125 0.035156,0.234375 0.109375,0.328125 0.070312,0.085937 0.175781,0.15625 0.3125,0.21875 0.132812,0.0625 0.351562,0.15625 0.65625,0.28125 0.363281,0.15625 0.644531,0.304687 0.84375,0.4375 0.195312,0.136719 0.34375,0.296875 0.4375,0.484375 0.09375,0.1875 0.140625,0.421875 0.140625,0.703125 0,0.46875 -0.171875,0.839844 -0.515625,1.109375 -0.34375,0.2617188 -0.855469,0.390625 -1.53125,0.390625 z m 0,0"
           style="stroke:none" />
      </symbol>
      <symbol
         id="glyph1-9"
         overflow="visible">
        <path
           id="path53"
           d="M 0.390625,-5.25 H 1.53125 V 0 H 0.390625 Z m 0,0"
           style="stroke:none" />
      </symbol>
      <symbol
         id="glyph1-10"
         overflow="visible">
        <path
           id="path56"
           d="M 0.390625,-5.25 H 1.5 l 2.203125,3.390625 V -5.25 H 4.84375 V 0 H 3.734375 L 1.53125,-3.390625 V 0 H 0.390625 Z m 0,0"
           style="stroke:none" />
      </symbol>
      <symbol
         id="glyph1-11"
         overflow="visible">
        <path
           id="path59"
           d="M 0.390625,-5.25 H 1.53125 v 4.296875 H 3.9375 V 0 H 0.390625 Z m 0,0"
           style="stroke:none" />
      </symbol>
      <symbol
         id="glyph1-12"
         overflow="visible">
        <path
           id="path62"
           d="M 0.390625,-5.25 H 2.21875 c 0.570312,0 1.070312,0.105469 1.5,0.3125 0.425781,0.210938 0.753906,0.511719 0.984375,0.90625 0.226563,0.386719 0.34375,0.84375 0.34375,1.375 0,0.875 -0.257813,1.539062 -0.765625,1.984375 C 3.769531,-0.222656 3.0625,0 2.15625,0 H 0.390625 Z m 1.828125,4.296875 c 0.53125,0 0.9375,-0.148437 1.21875,-0.453125 C 3.726562,-1.707031 3.875,-2.125 3.875,-2.65625 3.875,-2.96875 3.8125,-3.25 3.6875,-3.5 3.5625,-3.75 3.378906,-3.941406 3.140625,-4.078125 2.898438,-4.222656 2.617188,-4.296875 2.296875,-4.296875 H 1.53125 v 3.34375 z m 0,0"
           style="stroke:none" />
      </symbol>
      <symbol
         id="glyph1-13"
         overflow="visible">
        <path
           id="path65"
           d="m 2.671875,0.109375 c -0.761719,0 -1.339844,-0.1953125 -1.734375,-0.59375 C 0.550781,-0.890625 0.359375,-1.4375 0.359375,-2.125 V -5.25 H 1.5 v 3.140625 c 0,0.386719 0.101562,0.679687 0.3125,0.875 0.207031,0.199219 0.492188,0.296875 0.859375,0.296875 0.363281,0 0.648437,-0.097656 0.859375,-0.296875 0.207031,-0.195313 0.3125,-0.488281 0.3125,-0.875 V -5.25 h 1.140625 v 3.125 c 0,0.6875 -0.195313,1.234375 -0.578125,1.640625 -0.386719,0.3984375 -0.964844,0.59375 -1.734375,0.59375 z m 0,0"
           style="stroke:none" />
      </symbol>
      <symbol
         id="glyph1-14"
         overflow="visible">
        <path
           id="path68"
           d="M 3.078125,0.109375 C 2.515625,0.109375 2.019531,0 1.59375,-0.21875 1.164062,-0.445312 0.832031,-0.765625 0.59375,-1.171875 0.351562,-1.578125 0.234375,-2.0625 0.234375,-2.625 c 0,-0.550781 0.117187,-1.035156 0.359375,-1.453125 0.238281,-0.414063 0.570312,-0.734375 1,-0.953125 0.425781,-0.21875 0.921875,-0.328125 1.484375,-0.328125 0.726563,0 1.335937,0.164063 1.828125,0.484375 v 1.09375 C 4.675781,-3.96875 4.421875,-4.101562 4.140625,-4.1875 c -0.28125,-0.082031 -0.605469,-0.125 -0.96875,-0.125 -0.542969,0 -0.976563,0.152344 -1.296875,0.453125 -0.3125,0.304687 -0.46875,0.714844 -0.46875,1.234375 0,0.53125 0.160156,0.949219 0.484375,1.25 0.320313,0.304688 0.75,0.453125 1.28125,0.453125 0.375,0 0.703125,-0.039063 0.984375,-0.125 0.289062,-0.09375 0.554688,-0.238281 0.796875,-0.4375 v 1.09375 c -0.460937,0.3359375 -1.085937,0.5 -1.875,0.5 z m 0,0"
           style="stroke:none" />
      </symbol>
      <symbol
         id="glyph1-15"
         overflow="visible">
        <path
           id="path71"
           d="M 1.640625,-4.296875 H 0.109375 V -5.25 h 4.21875 v 0.953125 H 2.78125 V 0 H 1.640625 Z m 0,0"
           style="stroke:none" />
      </symbol>
    </g>
    <clipPath
       id="clip1">
      <path
         id="path76"
         d="m 148,110 h 8.58203 v 10 H 148 Z m 0,0" />
    </clipPath>
    <clipPath
       id="clip2">
      <path
         id="path79"
         d="M 101.10938,110 H 110 v 10 h -8.89062 z m 0,0" />
    </clipPath>
    <clipPath
       id="clip3">
      <path
         id="path82"
         d="m 140,55.136719 h 3 V 74 h -3 z m 0,0" />
    </clipPath>
    <clipPath
       id="clip4">
      <path
         id="path85"
         d="m 115,55.136719 h 2 V 74 h -2 z m 0,0" />
    </clipPath>
    <clipPath
       id="clip5">
      <path
         id="path88"
         d="m 119,113 h 20 v 20.09766 h -20 z m 0,0" />
    </clipPath>
  </defs>
  <g
     transform="matrix(0.71671246,0,0,0.71671246,-9.3246781,-39.575966)"
     id="surface1">
    <g
       id="g95"
       style="fill:#000000;fill-opacity:1">
      <use
         height="100%"
         width="100%"
         id="use93"
         y="138.91606"
         x="12.104097"
         xlink:href="#glyph0-1" />
    </g>
    <g
       id="g99"
       style="fill:#000000;fill-opacity:1">
      <use
         height="100%"
         width="100%"
         id="use97"
         y="138.91606"
         x="33.474113"
         xlink:href="#glyph0-2" />
    </g>
    <g
       id="g103"
       style="fill:#000000;fill-opacity:1">
      <use
         height="100%"
         width="100%"
         id="use101"
         y="138.91606"
         x="68.426888"
         xlink:href="#glyph0-3" />
    </g>
    <g
       id="g107"
       style="fill:#000000;fill-opacity:1">
      <use
         height="100%"
         width="100%"
         id="use105"
         y="138.91606"
         x="96.305321"
         xlink:href="#glyph0-4" />
    </g>
    <g
       id="g111"
       style="fill:#000000;fill-opacity:1">
      <use
         height="100%"
         width="100%"
         id="use109"
         y="138.91606"
         x="124.89117"
         xlink:href="#glyph0-5" />
    </g>
    <g
       id="g115"
       style="fill:#000000;fill-opacity:1">
      <use
         height="100%"
         width="100%"
         id="use113"
         y="138.91606"
         x="143.85591"
         xlink:href="#glyph0-6" />
    </g>
    <g
       id="g119"
       style="fill:#000000;fill-opacity:1">
      <use
         height="100%"
         width="100%"
         id="use117"
         y="138.91606"
         x="172.58325"
         xlink:href="#glyph0-7" />
    </g>
    <g
       id="g123"
       style="fill:#000000;fill-opacity:1">
      <use
         height="100%"
         width="100%"
         id="use121"
         y="138.91606"
         x="202.72548"
         xlink:href="#glyph0-1" />
    </g>
    <path
       id="path125"
       d="m 154.50781,111.89453 h -3.92969 V 88.246094 c 0,-0.78125 -0.63281,-1.414063 -1.41406,-1.414063 h -5.83984 v -3.9375 h 5.83984 c 2.94922,0 5.34375,2.402344 5.34375,5.351563 v 23.648436"
       style="fill:#383335;fill-opacity:1;fill-rule:nonzero;stroke:none" />
    <g
       id="g129"
       clip-rule="nonzero"
       clip-path="url(#clip1)">
      <path
         id="path127"
         d="m 156.59375,119.87109 h -2.11328 v -5.3125 c 0,-1.0664 -0.8711,-1.9375 -1.9375,-1.9375 -1.06641,0 -1.9336,0.8711 -1.9336,1.9375 v 5.3125 h -2.11718 v -5.3125 c 0,-2.23437 1.8164,-4.05468 4.05078,-4.05468 2.23437,0 4.05078,1.82031 4.05078,4.05468 v 5.3125"
         style="fill:#636161;fill-opacity:1;fill-rule:nonzero;stroke:none" />
    </g>
    <path
       id="path131"
       d="m 154.96484,108.91016 c 0,0.47656 -0.38672,0.85937 -0.85937,0.85937 h -3.1211 c -0.47656,0 -0.85937,-0.38281 -0.85937,-0.85937 0,-0.47266 0.38281,-0.85938 0.85937,-0.85938 h 3.1211 c 0.47265,0 0.85937,0.38672 0.85937,0.85938"
       style="fill:#636161;fill-opacity:1;fill-rule:nonzero;stroke:none" />
    <path
       id="path133"
       d="m 154.96484,106.375 c 0,0.47656 -0.38672,0.85938 -0.85937,0.85938 h -3.1211 c -0.47656,0 -0.85937,-0.38282 -0.85937,-0.85938 0,-0.47656 0.38281,-0.85937 0.85937,-0.85937 h 3.1211 c 0.47265,0 0.85937,0.38281 0.85937,0.85937"
       style="fill:#636161;fill-opacity:1;fill-rule:nonzero;stroke:none" />
    <path
       id="path135"
       d="m 154.96484,103.83984 c 0,0.47266 -0.38672,0.85938 -0.85937,0.85938 h -3.1211 c -0.47656,0 -0.85937,-0.38672 -0.85937,-0.85938 0,-0.47656 0.38281,-0.85937 0.85937,-0.85937 h 3.1211 c 0.47265,0 0.85937,0.38281 0.85937,0.85937"
       style="fill:#636161;fill-opacity:1;fill-rule:nonzero;stroke:none" />
    <path
       id="path137"
       d="m 154.96484,101.30469 c 0,0.47265 -0.38672,0.85937 -0.85937,0.85937 h -3.1211 c -0.47656,0 -0.85937,-0.38672 -0.85937,-0.85937 0,-0.47656 0.38281,-0.86328 0.85937,-0.86328 h 3.1211 c 0.47265,0 0.85937,0.38672 0.85937,0.86328"
       style="fill:#636161;fill-opacity:1;fill-rule:nonzero;stroke:none" />
    <path
       id="path139"
       d="m 154.96484,98.765625 c 0,0.476563 -0.38672,0.863281 -0.85937,0.863281 h -3.1211 c -0.47656,0 -0.85937,-0.386718 -0.85937,-0.863281 0,-0.472656 0.38281,-0.859375 0.85937,-0.859375 h 3.1211 c 0.47265,0 0.85937,0.386719 0.85937,0.859375"
       style="fill:#636161;fill-opacity:1;fill-rule:nonzero;stroke:none" />
    <path
       id="path141"
       d="m 154.96484,96.230469 c 0,0.476562 -0.38672,0.859375 -0.85937,0.859375 h -3.1211 c -0.47656,0 -0.85937,-0.382813 -0.85937,-0.859375 0,-0.472657 0.38281,-0.859375 0.85937,-0.859375 h 3.1211 c 0.47265,0 0.85937,0.386718 0.85937,0.859375"
       style="fill:#636161;fill-opacity:1;fill-rule:nonzero;stroke:none" />
    <path
       id="path143"
       d="m 154.96484,93.695312 c 0,0.476563 -0.38672,0.859376 -0.85937,0.859376 h -3.1211 c -0.47656,0 -0.85937,-0.382813 -0.85937,-0.859376 0,-0.476562 0.38281,-0.859374 0.85937,-0.859374 h 3.1211 c 0.47265,0 0.85937,0.382812 0.85937,0.859374"
       style="fill:#636161;fill-opacity:1;fill-rule:nonzero;stroke:none" />
    <path
       id="path145"
       d="m 154.96484,91.160156 c 0,0.472656 -0.38672,0.859375 -0.85937,0.859375 h -3.1211 c -0.47656,0 -0.85937,-0.386719 -0.85937,-0.859375 0,-0.476562 0.38281,-0.863281 0.85937,-0.863281 h 3.1211 c 0.47265,0 0.85937,0.386719 0.85937,0.863281"
       style="fill:#636161;fill-opacity:1;fill-rule:nonzero;stroke:none" />
    <path
       id="path147"
       d="m 154.96484,88.621094 c 0,0.476562 -0.38672,0.863281 -0.85937,0.863281 h -3.1211 c -0.47656,0 -0.85937,-0.386719 -0.85937,-0.863281 0,-0.472656 0.38281,-0.859375 0.85937,-0.859375 h 3.1211 c 0.47265,0 0.85937,0.386719 0.85937,0.859375"
       style="fill:#636161;fill-opacity:1;fill-rule:nonzero;stroke:none" />
    <path
       id="path149"
       d="m 153.04687,84.078125 c 0.33204,0.335937 0.33204,0.878906 0,1.214844 l -2.20703,2.210937 c -0.33593,0.335938 -0.88281,0.335938 -1.21484,0 -0.33594,-0.335937 -0.33594,-0.882812 0,-1.214844 l 2.20703,-2.210937 c 0.33594,-0.335937 0.87891,-0.335937 1.21484,0"
       style="fill:#636161;fill-opacity:1;fill-rule:nonzero;stroke:none" />
    <path
       id="path151"
       d="m 148.27734,87.285156 c -0.47656,0 -0.85937,-0.386718 -0.85937,-0.859375 v -3.125 c 0,-0.476562 0.38281,-0.859375 0.85937,-0.859375 0.47266,0 0.85938,0.382813 0.85938,0.859375 v 3.125 c 0,0.472657 -0.38672,0.859375 -0.85938,0.859375"
       style="fill:#636161;fill-opacity:1;fill-rule:nonzero;stroke:none" />
    <path
       id="path153"
       d="m 145.88281,87.285156 c -0.47265,0 -0.85937,-0.386718 -0.85937,-0.859375 v -3.125 c 0,-0.476562 0.38672,-0.859375 0.85937,-0.859375 0.47266,0 0.85938,0.382813 0.85938,0.859375 v 3.125 c 0,0.472657 -0.38672,0.859375 -0.85938,0.859375"
       style="fill:#636161;fill-opacity:1;fill-rule:nonzero;stroke:none" />
    <path
       id="path155"
       d="m 103.20313,111.89453 h 3.93359 V 88.246094 c 0,-0.78125 0.63281,-1.414063 1.41406,-1.414063 h 5.83985 v -3.9375 h -5.83985 c -2.94922,0 -5.34765,2.402344 -5.34765,5.351563 v 23.648436"
       style="fill:#383335;fill-opacity:1;fill-rule:nonzero;stroke:none" />
    <g
       id="g159"
       clip-rule="nonzero"
       clip-path="url(#clip2)">
      <path
         id="path157"
         d="m 101.11719,119.87109 h 2.11719 v -5.3125 c 0,-1.0664 0.87109,-1.9375 1.9375,-1.9375 1.0625,0 1.93359,0.8711 1.93359,1.9375 v 5.3125 h 2.11719 v -5.3125 c 0,-2.23437 -1.82032,-4.05468 -4.05078,-4.05468 -2.23438,0 -4.05469,1.82031 -4.05469,4.05468 v 5.3125"
         style="fill:#636161;fill-opacity:1;fill-rule:nonzero;stroke:none" />
    </g>
    <path
       id="path161"
       d="m 102.75,108.91016 c 0,0.47656 0.38672,0.85937 0.85938,0.85937 h 3.12109 c 0.47266,0 0.85937,-0.38281 0.85937,-0.85937 0,-0.47266 -0.38671,-0.85938 -0.85937,-0.85938 h -3.12109 c -0.47266,0 -0.85938,0.38672 -0.85938,0.85938"
       style="fill:#636161;fill-opacity:1;fill-rule:nonzero;stroke:none" />
    <path
       id="path163"
       d="m 102.75,106.375 c 0,0.47656 0.38672,0.85938 0.85938,0.85938 h 3.12109 c 0.47266,0 0.85937,-0.38282 0.85937,-0.85938 0,-0.47656 -0.38671,-0.85937 -0.85937,-0.85937 h -3.12109 c -0.47266,0 -0.85938,0.38281 -0.85938,0.85937"
       style="fill:#636161;fill-opacity:1;fill-rule:nonzero;stroke:none" />
    <path
       id="path165"
       d="m 102.75,103.83984 c 0,0.47266 0.38672,0.85938 0.85938,0.85938 h 3.12109 c 0.47266,0 0.85937,-0.38672 0.85937,-0.85938 0,-0.47656 -0.38671,-0.85937 -0.85937,-0.85937 h -3.12109 c -0.47266,0 -0.85938,0.38281 -0.85938,0.85937"
       style="fill:#636161;fill-opacity:1;fill-rule:nonzero;stroke:none" />
    <path
       id="path167"
       d="m 102.75,101.30469 c 0,0.47265 0.38672,0.85937 0.85938,0.85937 h 3.12109 c 0.47266,0 0.85937,-0.38672 0.85937,-0.85937 0,-0.47656 -0.38671,-0.86328 -0.85937,-0.86328 h -3.12109 c -0.47266,0 -0.85938,0.38672 -0.85938,0.86328"
       style="fill:#636161;fill-opacity:1;fill-rule:nonzero;stroke:none" />
    <path
       id="path169"
       d="m 102.75,98.765625 c 0,0.476563 0.38672,0.863281 0.85938,0.863281 h 3.12109 c 0.47266,0 0.85937,-0.386718 0.85937,-0.863281 0,-0.472656 -0.38671,-0.859375 -0.85937,-0.859375 h -3.12109 c -0.47266,0 -0.85938,0.386719 -0.85938,0.859375"
       style="fill:#636161;fill-opacity:1;fill-rule:nonzero;stroke:none" />
    <path
       id="path171"
       d="m 102.75,96.230469 c 0,0.476562 0.38672,0.859375 0.85938,0.859375 h 3.12109 c 0.47266,0 0.85937,-0.382813 0.85937,-0.859375 0,-0.472657 -0.38671,-0.859375 -0.85937,-0.859375 h -3.12109 c -0.47266,0 -0.85938,0.386718 -0.85938,0.859375"
       style="fill:#636161;fill-opacity:1;fill-rule:nonzero;stroke:none" />
    <path
       id="path173"
       d="m 102.75,93.695312 c 0,0.476563 0.38672,0.859376 0.85938,0.859376 h 3.12109 c 0.47266,0 0.85937,-0.382813 0.85937,-0.859376 0,-0.476562 -0.38671,-0.859374 -0.85937,-0.859374 h -3.12109 c -0.47266,0 -0.85938,0.382812 -0.85938,0.859374"
       style="fill:#636161;fill-opacity:1;fill-rule:nonzero;stroke:none" />
    <path
       id="path175"
       d="m 102.75,91.160156 c 0,0.472656 0.38672,0.859375 0.85938,0.859375 h 3.12109 c 0.47266,0 0.85937,-0.386719 0.85937,-0.859375 0,-0.476562 -0.38671,-0.863281 -0.85937,-0.863281 h -3.12109 c -0.47266,0 -0.85938,0.386719 -0.85938,0.863281"
       style="fill:#636161;fill-opacity:1;fill-rule:nonzero;stroke:none" />
    <path
       id="path177"
       d="m 102.75,88.621094 c 0,0.476562 0.38672,0.863281 0.85938,0.863281 h 3.12109 c 0.47266,0 0.85937,-0.386719 0.85937,-0.863281 0,-0.472656 -0.38671,-0.859375 -0.85937,-0.859375 h -3.12109 c -0.47266,0 -0.85938,0.386719 -0.85938,0.859375"
       style="fill:#636161;fill-opacity:1;fill-rule:nonzero;stroke:none" />
    <path
       id="path179"
       d="m 104.66797,84.078125 c -0.33594,0.335937 -0.33594,0.878906 0,1.214844 l 2.20703,2.210937 c 0.33594,0.335938 0.87891,0.335938 1.21484,0 0.33594,-0.335937 0.33594,-0.882812 0,-1.214844 l -2.20703,-2.210937 c -0.33593,-0.335937 -0.8789,-0.335937 -1.21484,0"
       style="fill:#636161;fill-opacity:1;fill-rule:nonzero;stroke:none" />
    <path
       id="path181"
       d="m 109.4375,87.285156 c 0.47266,0 0.85938,-0.386718 0.85938,-0.859375 v -3.125 c 0,-0.476562 -0.38672,-0.859375 -0.85938,-0.859375 -0.47266,0 -0.85937,0.382813 -0.85937,0.859375 v 3.125 c 0,0.472657 0.38671,0.859375 0.85937,0.859375"
       style="fill:#636161;fill-opacity:1;fill-rule:nonzero;stroke:none" />
    <path
       id="path183"
       d="m 111.83203,87.285156 c 0.47266,0 0.85938,-0.386718 0.85938,-0.859375 v -3.125 c 0,-0.476562 -0.38672,-0.859375 -0.85938,-0.859375 -0.47656,0 -0.85937,0.382813 -0.85937,0.859375 v 3.125 c 0,0.472657 0.38281,0.859375 0.85937,0.859375"
       style="fill:#636161;fill-opacity:1;fill-rule:nonzero;stroke:none" />
    <g
       id="g187"
       clip-rule="nonzero"
       clip-path="url(#clip3)">
      <path
         id="path185"
         d="M 142.32812,73.277344 V 56.019531 c 0,-0.445312 -0.35937,-0.800781 -0.80078,-0.800781 -0.4414,0 -0.80078,0.355469 -0.80078,0.800781 v 17.257813 h 1.60156"
         style="fill:#636161;fill-opacity:1;fill-rule:nonzero;stroke:none" />
    </g>
    <path
       id="path189"
       d="m 142.62891,69.878906 h -3.52735 v 9.28125 h 3.52735 c 0.55859,0 1.01171,-0.453125 1.01171,-1.011718 v -7.257813 c 0,-0.558594 -0.45312,-1.011719 -1.01171,-1.011719"
       style="fill:#383335;fill-opacity:1;fill-rule:nonzero;stroke:none" />
    <g
       id="g193"
       clip-rule="nonzero"
       clip-path="url(#clip4)">
      <path
         id="path191"
         d="M 115.38672,73.277344 V 56.019531 c 0,-0.445312 0.35937,-0.800781 0.80078,-0.800781 0.44141,0 0.80078,0.355469 0.80078,0.800781 v 17.257813 h -1.60156"
         style="fill:#636161;fill-opacity:1;fill-rule:nonzero;stroke:none" />
    </g>
    <path
       id="path195"
       d="m 115.08594,69.878906 h 3.52734 v 9.28125 h -3.52734 c -0.5586,0 -1.01172,-0.453125 -1.01172,-1.011718 v -7.257813 c 0,-0.558594 0.45312,-1.011719 1.01172,-1.011719"
       style="fill:#383335;fill-opacity:1;fill-rule:nonzero;stroke:none" />
    <path
       id="path197"
       d="m 131.64062,116.73047 h -5.5664 v -4.12891 h 5.5664 v 4.12891"
       style="fill:#e64f59;fill-opacity:1;fill-rule:nonzero;stroke:none" />
    <path
       id="path199"
       d="m 140.19922,81.613281 v -8.382812 c 0,-6.273438 -5.07813,-11.359375 -11.34375,-11.359375 -6.26172,0 -11.34375,5.085937 -11.34375,11.359375 v 8.382812 h 22.6875"
       style="fill:#e64f59;fill-opacity:1;fill-rule:nonzero;stroke:none" />
    <path
       id="path201"
       d="m 145.80859,104.69141 c 0,1.63281 -1.32031,2.95703 -2.94922,2.95703 h -28.0039 c -1.62891,0 -2.95313,-1.32422 -2.95313,-2.95703 V 84.570312 c 0,-1.632812 1.32422,-2.957031 2.95313,-2.957031 h 28.0039 c 1.62891,0 2.94922,1.324219 2.94922,2.957031 v 20.121098"
       style="fill:#e64f59;fill-opacity:1;fill-rule:nonzero;stroke:none" />
    <path
       id="path203"
       d="m 124.38281,112.60156 c 0,-0.39062 0.31641,-0.70703 0.70703,-0.70703 h 7.53516 c 0.39062,0 0.70703,0.31641 0.70703,0.70703 0,0.39063 -0.31641,0.70703 -0.70703,0.70703 h -7.53516 c -0.39062,0 -0.70703,-0.3164 -0.70703,-0.70703"
       style="fill:#636161;fill-opacity:1;fill-rule:nonzero;stroke:none" />
    <path
       id="path205"
       d="m 124.38281,111.1875 c 0,-0.39062 0.31641,-0.70703 0.70703,-0.70703 h 7.53516 c 0.39062,0 0.70703,0.31641 0.70703,0.70703 0,0.39063 -0.31641,0.70703 -0.70703,0.70703 h -7.53516 c -0.39062,0 -0.70703,-0.3164 -0.70703,-0.70703"
       style="fill:#383335;fill-opacity:1;fill-rule:nonzero;stroke:none" />
    <path
       id="path207"
       d="m 124.38281,108.35547 c 0,-0.39063 0.31641,-0.70703 0.70703,-0.70703 h 7.53516 c 0.39062,0 0.70703,0.3164 0.70703,0.70703 0,0.39062 -0.31641,0.70703 -0.70703,0.70703 h -7.53516 c -0.39062,0 -0.70703,-0.31641 -0.70703,-0.70703"
       style="fill:#383335;fill-opacity:1;fill-rule:nonzero;stroke:none" />
    <path
       id="path209"
       d="m 124.38281,109.76953 c 0,-0.39062 0.31641,-0.70703 0.70703,-0.70703 h 7.53516 c 0.39062,0 0.70703,0.31641 0.70703,0.70703 0,0.39063 -0.31641,0.71094 -0.70703,0.71094 h -7.53516 c -0.39062,0 -0.70703,-0.32031 -0.70703,-0.71094"
       style="fill:#636161;fill-opacity:1;fill-rule:nonzero;stroke:none" />
    <g
       id="g213"
       clip-rule="nonzero"
       clip-path="url(#clip5)">
      <path
         id="path211"
         d="m 138.18359,122.1875 -1.28125,-0.28516 c -0.10937,-0.59765 -0.28125,-1.16796 -0.51172,-1.70312 l 0.98438,-0.91797 c 0.12891,-0.0664 0.1875,-0.21094 0.125,-0.32422 L 136.86719,117.75 c -0.0625,-0.11328 -0.21485,-0.14844 -0.34375,-0.0859 l -1.55469,0.31641 c -0.36328,-0.40234 -0.76172,-0.76953 -1.19531,-1.08984 l 0.2539,-1.21875 c 0.0664,-0.12891 0.0273,-0.27735 -0.0859,-0.33594 l -1.22266,-0.62891 c -0.11328,-0.0586 -0.26172,0 -0.32813,0.125 l -0.85546,0.89063 c -0.48438,-0.16407 -0.98438,-0.28516 -1.5,-0.35938 v -0.0117 l -0.6211,-1.47656 c -0.0156,-0.14453 -0.13281,-0.24609 -0.26172,-0.23437 l -1.36718,0.16015 c -0.12891,0.0156 -0.21875,0.14063 -0.20313,0.28516 l -0.22265,1.35156 c -0.61719,0.11719 -1.20704,0.29688 -1.76172,0.53906 l -1.1875,-1.01172 c -0.0781,-0.12109 -0.23047,-0.16015 -0.33985,-0.0898 l -1.15234,0.74609 c -0.10547,0.0703 -0.12891,0.22266 -0.0508,0.34375 l 0.47265,1.47266 c -0.33984,0.30859 -0.64453,0.65234 -0.92578,1.01172 l -1.51172,-0.28125 c -0.13281,-0.0625 -0.28515,-0.0273 -0.33984,0.0898 l -0.61719,1.21485 c -0.0586,0.11718 0,0.26172 0.13282,0.32812 l 1.08203,0.97266 c -0.15625,0.47265 -0.27344,0.96094 -0.34375,1.46094 l -1.39453,0.5664 c -0.14844,0.0156 -0.25391,0.12891 -0.23829,0.25391 l 0.15235,1.35156 c 0.0156,0.12891 0.14453,0.21875 0.28906,0.20313 l 1.26172,0.20703 c 0.13672,0.71093 0.35547,1.38281 0.66016,2.0039 l -0.85938,0.58203 c -0.13672,0.0469 -0.21875,0.17969 -0.17578,0.30079 l 0.4375,1.28906 c 0.043,0.12109 0.1875,0.17968 0.32422,0.13672 l 1.625,-0.0781 c 0.0664,-0.0195 0.11719,-0.0664 0.15234,-0.125 0.24219,0.25 0.5,0.48047 0.77344,0.69141 l -0.0508,0.082 -0.16797,1.59375 c -0.0547,0.13281 -0.004,0.27734 0.11719,0.32812 l 1.28125,0.50391 c 0.11718,0.0508 0.25781,-0.0234 0.3125,-0.15625 l 0.83593,-1.06641 c 0.50391,0.17578 1.02735,0.30469 1.5625,0.38282 v 0.0117 l 0.60938,1.48438 c 0.0156,0.14062 0.13281,0.24609 0.26172,0.23437 l 1.37109,-0.14843 c 0.125,-0.0156 0.21484,-0.14063 0.20313,-0.28125 l 0.23437,-1.36719 c 0.51172,-0.0937 1.00391,-0.23047 1.47266,-0.41016 l 0.98437,1.10938 c 0.0625,0.1289 0.20703,0.1914 0.32422,0.13672 l 1.24609,-0.58203 c 0.11719,-0.0508 0.16016,-0.20313 0.10157,-0.33204 l -0.26563,-1.57812 -0.10156,-0.10938 c 0.39453,-0.33203 0.75,-0.6914 1.07031,-1.08203 l 0.0703,0.043 1.61329,0.19141 c 0.13281,0.0586 0.28125,0.004 0.33203,-0.11328 l 0.53125,-1.25391 c 0.0508,-0.11719 -0.0195,-0.25781 -0.15235,-0.3164 l -1.07422,-0.83985 c 0.19141,-0.52344 0.32813,-1.0664 0.41016,-1.6289 l 1.32813,-0.44922 c 0.14453,-0.008 0.25781,-0.11719 0.24609,-0.24219 l -0.0742,-1.35938 c -0.008,-0.1289 -0.12891,-0.22265 -0.27344,-0.21484"
         style="fill:#383335;fill-opacity:1;fill-rule:nonzero;stroke:none" />
    </g>
    <path
       id="path215"
       d="m 134.35547,123.49219 c 0,3.04297 -2.46094,5.50781 -5.5,5.50781 -3.03516,0 -5.49609,-2.46484 -5.49609,-5.50781 0,-3.03906 2.46093,-5.50391 5.49609,-5.50391 3.03906,0 5.5,2.46485 5.5,5.50391"
       style="fill:#636161;fill-opacity:1;fill-rule:nonzero;stroke:none" />
    <path
       id="path217"
       d="m 131.84766,123.49219 c 0,1.65625 -1.33985,2.99609 -2.99219,2.99609 -1.65234,0 -2.98828,-1.33984 -2.98828,-2.99609 0,-1.65235 1.33594,-2.99219 2.98828,-2.99219 1.65234,0 2.99219,1.33984 2.99219,2.99219"
       style="fill:#d1d1d1;fill-opacity:1;fill-rule:nonzero;stroke:none" />
    <path
       id="path219"
       d="m 134.07422,74.351562 c -1.4375,0 -2.60547,-1.171874 -2.60547,-2.609374 0,-1.4375 1.16797,-2.609376 2.60547,-2.609376 1.4375,0 2.60547,1.171876 2.60547,2.609376 0,1.4375 -1.16797,2.609374 -2.60547,2.609374"
       style="fill:#383335;fill-opacity:1;fill-rule:nonzero;stroke:none" />
    <path
       id="path221"
       d="m 134.07422,68.648438 c -1.70313,0 -3.08985,1.386718 -3.08985,3.09375 0,1.707031 1.38672,3.09375 3.08985,3.09375 1.70312,0 3.08984,-1.386719 3.08984,-3.09375 0,-1.707032 -1.38672,-3.09375 -3.08984,-3.09375 z m 0,0.96875 c 1.17187,0 2.12109,0.953124 2.12109,2.125 0,1.171874 -0.94922,2.125 -2.12109,2.125 -1.17188,0 -2.1211,-0.953126 -2.1211,-2.125 0,-1.171876 0.94922,-2.125 2.1211,-2.125"
       style="fill:#ffffff;fill-opacity:1;fill-rule:nonzero;stroke:none" />
    <path
       id="path223"
       d="m 123.64063,74.351562 c -1.4375,0 -2.60547,-1.171874 -2.60547,-2.609374 0,-1.4375 1.16797,-2.609376 2.60547,-2.609376 1.4375,0 2.60546,1.171876 2.60546,2.609376 0,1.4375 -1.16796,2.609374 -2.60546,2.609374"
       style="fill:#ffffff;fill-opacity:1;fill-rule:nonzero;stroke:none" />
    <path
       id="path225"
       d="m 123.64063,68.648438 c -1.70313,0 -3.08985,1.386718 -3.08985,3.09375 0,1.707031 1.38672,3.09375 3.08985,3.09375 1.70312,0 3.08984,-1.386719 3.08984,-3.09375 0,-1.707032 -1.38672,-3.09375 -3.08984,-3.09375 z m 0,0.96875 c 1.17187,0 2.12109,0.953124 2.12109,2.125 0,1.171874 -0.94922,2.125 -2.12109,2.125 -1.17188,0 -2.1211,-0.953126 -2.1211,-2.125 0,-1.171876 0.94922,-2.125 2.1211,-2.125"
       style="fill:#383335;fill-opacity:1;fill-rule:nonzero;stroke:none" />
    <path
       id="path227"
       d="m 142.32812,104.82813 v -7.878911 c 0,-5.179688 0,-13.375 -13.47265,-13.375 -13.46875,0 -13.46875,8.195312 -13.46875,13.375 v 7.878911 h 26.9414"
       style="fill:#ffffff;fill-opacity:1;fill-rule:nonzero;stroke:none" />
    <path
       id="path229"
       d="m 125.92969,96.9375 c -2.1875,0.644531 -4.48828,-0.605469 -5.13281,-2.800781 -0.64454,-2.191407 0.60546,-4.492188 2.79296,-5.136719 2.19141,-0.648438 4.48828,0.605469 5.13282,2.796875 0.64843,2.191406 -0.60157,4.492187 -2.79297,5.140625 z m 5.51953,-6.800781 c -0.0312,-0.08984 -0.14063,-0.132813 -0.24219,-0.09766 l -0.98437,0.06641 c -0.20704,-0.40625 -0.45313,-0.78125 -0.73047,-1.117188 l 0.51562,-0.871093 c 0.0781,-0.07422 0.0898,-0.191407 0.0195,-0.257813 l -0.71093,-0.738281 c -0.0703,-0.06641 -0.1836,-0.0625 -0.26563,0.01172 l -1.05469,0.558594 c -0.34765,-0.210937 -0.71484,-0.390625 -1.09375,-0.527344 l -0.0742,-0.933593 c 0.0195,-0.109375 -0.0391,-0.207031 -0.13282,-0.226563 l -1.0156,-0.191408 c -0.0977,-0.01953 -0.19141,0.05469 -0.21094,0.160156 l -0.42578,0.824219 c -0.38281,-0.01563 -0.76953,0.0039 -1.16016,0.05859 v -0.0078 l -0.76172,-0.933594 c -0.043,-0.09766 -0.14843,-0.148437 -0.23828,-0.109374 l -0.95312,0.40625 c -0.0898,0.03516 -0.12891,0.144531 -0.0859,0.246093 l 0.12891,1.019531 c -0.42188,0.21875 -0.8086,0.472657 -1.15625,0.765626 l -1.07032,-0.476563 c -0.0859,-0.07031 -0.20312,-0.06641 -0.26562,0.0078 l -0.67188,0.78125 c -0.0625,0.07422 -0.0469,0.191406 0.0352,0.261718 l 0.65234,0.960938 c -0.17578,0.292968 -0.32421,0.605468 -0.44921,0.925781 l -1.15235,0.117187 c -0.10547,-0.01562 -0.20703,0.04297 -0.22656,0.136719 l -0.18359,1.007813 c -0.0195,0.09766 0.0547,0.1875 0.16406,0.207031 l 0.98828,0.472656 c -0.0156,0.375 0.004,0.75 0.0586,1.128907 l -0.88281,0.703124 c -0.10156,0.03906 -0.15625,0.148438 -0.11719,0.234376 l 0.39453,0.941406 c 0.0391,0.08984 0.15235,0.125 0.25391,0.08203 l 0.95313,-0.117187 c 0.25,0.480468 0.55078,0.921874 0.89843,1.304687 l -0.49218,0.601563 c -0.0937,0.0625 -0.1211,0.175781 -0.0664,0.253906 l 0.58984,0.835937 c 0.0586,0.07813 0.17578,0.08984 0.26563,0.03125 l 1.15234,-0.402343 c 0.043,-0.03125 0.0703,-0.07422 0.082,-0.121094 0.23047,0.125 0.46485,0.238281 0.70703,0.332031 l -0.0195,0.07031 0.21485,1.183593 c -0.0117,0.109375 0.0586,0.203125 0.15625,0.210938 l 1.02734,0.08984 c 0.0977,0.0117 0.18359,-0.07031 0.19531,-0.179678 l 0.375,-0.945313 c 0.40235,0.01953 0.80469,0.0039 1.21094,-0.05469 v 0.0078 l 0.75391,0.9375 c 0.043,0.101562 0.14843,0.152343 0.23828,0.117187 l 0.95703,-0.398437 c 0.0898,-0.03906 0.12891,-0.148438 0.0859,-0.25 l -0.1211,-1.03125 c 0.35157,-0.179688 0.67969,-0.382813 0.97656,-0.613282 l 0.94532,0.59375 c 0.0703,0.07813 0.1875,0.09375 0.26172,0.03125 l 0.77734,-0.6875 c 0.0703,-0.0625 0.0703,-0.179687 0,-0.261718 l -0.52734,-1.078126 -0.0977,-0.0625 c 0.21484,-0.320312 0.39453,-0.652343 0.54297,-1.007812 l 0.0586,0.01953 1.20313,-0.207031 c 0.10937,0.01563 0.20703,-0.05469 0.21875,-0.148438 l 0.11328,-1.019531 c 0.0156,-0.09375 -0.0664,-0.183593 -0.17188,-0.195312 l -0.95703,-0.378907 c 0.0273,-0.417968 0.0117,-0.835937 -0.0469,-1.257812 l 0.85937,-0.609375 c 0.10156,-0.03516 0.16016,-0.140625 0.12891,-0.226563 l -0.34375,-0.964843"
       style="fill:#383335;fill-opacity:1;fill-rule:nonzero;stroke:none" />
    <path
       id="path231"
       d="m 134.97266,101.19141 c -1.15235,-0.125 -1.98829,-1.16016 -1.86329,-2.320316 0.1211,-1.152344 1.16016,-1.992188 2.31641,-1.867188 1.15234,0.125 1.98828,1.164063 1.86328,2.320313 -0.125,1.156251 -1.16015,1.992191 -2.3164,1.867191 z m 5.26171,-2.125004 c 0,-0.0625 -0.0547,-0.121094 -0.13281,-0.125 l -0.64453,-0.21875 c -0.0234,-0.316406 -0.082,-0.621094 -0.17187,-0.910156 l 0.5625,-0.421875 c 0.0703,-0.02734 0.10546,-0.09766 0.082,-0.160156 l -0.26172,-0.660157 c -0.0273,-0.0625 -0.10156,-0.08984 -0.17188,-0.0625 l -0.82422,0.07422 c -0.16406,-0.226562 -0.35156,-0.4375 -0.55859,-0.628906 l 0.19922,-0.617187 c 0.043,-0.0625 0.0312,-0.144532 -0.0234,-0.179688 l -0.60156,-0.394531 c -0.0547,-0.03516 -0.13281,-0.01563 -0.17578,0.04687 l -0.49219,0.414062 c -0.24219,-0.113281 -0.49219,-0.203125 -0.75781,-0.269531 v -0.0078 l -0.23828,-0.800781 c 0,-0.07422 -0.0547,-0.132812 -0.125,-0.132812 l -0.71485,0.0039 c -0.0703,0.0039 -0.12109,0.0625 -0.12109,0.136719 l -0.19141,0.6875 c -0.32422,0.02734 -0.64062,0.08594 -0.9414,0.183594 l -0.5586,-0.589844 c -0.0352,-0.07031 -0.11328,-0.09766 -0.17187,-0.06641 L 132.5625,94.6875 c -0.0586,0.03125 -0.082,0.109375 -0.0469,0.175781 l 0.16016,0.789063 c -0.19141,0.140625 -0.36719,0.300781 -0.53516,0.472656 l -0.7656,-0.230469 c -0.0664,-0.03906 -0.14453,-0.02734 -0.18359,0.02734 l -0.38282,0.59375 c -0.0391,0.05859 -0.0156,0.136719 0.0469,0.179687 l 0.50781,0.566407 C 131.25391,97.496094 131.16797,97.742188 131.10156,98 l -0.7539,0.210938 c -0.0742,0 -0.13672,0.05469 -0.13672,0.121093 l 0.004,0.707031 c 0,0.06641 0.0625,0.121094 0.14063,0.121094 l 0.64062,0.179688 c 0.0312,0.375 0.10547,0.734376 0.23047,1.074216 l -0.47656,0.25391 c -0.0742,0.0156 -0.125,0.082 -0.10938,0.14453 l 0.15625,0.69531 c 0.0156,0.0625 0.0859,0.10157 0.16016,0.0859 l 0.84375,0.0508 c 0.0391,-0.008 0.0664,-0.0273 0.0859,-0.0547 0.11328,0.14063 0.23437,0.27344 0.36328,0.39844 l -0.0312,0.0391 -0.17578,0.81641 c -0.0352,0.0664 -0.0156,0.14844 0.043,0.17578 l 0.63672,0.33203 c 0.0586,0.0352 0.13671,0.008 0.17187,-0.0586 l 0.49219,-0.50781 c 0.25,0.12109 0.51172,0.21484 0.78906,0.28515 l -0.004,0.008 0.23438,0.80078 c 0,0.0742 0.0547,0.13672 0.12109,0.13672 h 0.71875 c 0.0664,0 0.1211,-0.0625 0.1211,-0.13672 l 0.19922,-0.69141 c 0.26953,-0.0195 0.53125,-0.0664 0.78515,-0.13281 l 0.44922,0.63281 c 0.0234,0.0703 0.0937,0.10938 0.15625,0.0859 l 0.67969,-0.23047 c 0.0625,-0.0195 0.0977,-0.0977 0.0703,-0.16797 l -0.0469,-0.83203 -0.0469,-0.0625 c 0.22266,-0.14844 0.42578,-0.31641 0.61328,-0.5 l 0.0352,0.0273 0.82422,0.1875 c 0.0664,0.0391 0.14453,0.0195 0.17968,-0.0391 l 0.34375,-0.62109 c 0.0312,-0.0586 0.004,-0.13672 -0.0625,-0.17188 l -0.50781,-0.49609 c 0.12891,-0.25781 0.23047,-0.53125 0.30469,-0.82031 l 0.71094,-0.156255 c 0.0742,0 0.14062,-0.05078 0.14062,-0.113281 l 0.0391,-0.710938"
       style="fill:#383335;fill-opacity:1;fill-rule:nonzero;stroke:none" />
    <path
       id="path233"
       d="m 121.48047,79.160156 h -1.83594 V 76.8125 h 1.83594 v 2.347656"
       style="fill:#383335;fill-opacity:1;fill-rule:nonzero;stroke:none" />
    <path
       id="path235"
       d="m 123.84766,79.160156 h -1.83203 V 76.8125 h 1.83203 v 2.347656"
       style="fill:#383335;fill-opacity:1;fill-rule:nonzero;stroke:none" />
    <path
       id="path237"
       d="m 126.21875,79.160156 h -1.83203 V 76.8125 h 1.83203 v 2.347656"
       style="fill:#383335;fill-opacity:1;fill-rule:nonzero;stroke:none" />
    <path
       id="path239"
       d="m 128.58984,79.160156 h -1.83593 V 76.8125 h 1.83593 v 2.347656"
       style="fill:#383335;fill-opacity:1;fill-rule:nonzero;stroke:none" />
    <path
       id="path241"
       d="M 130.95703,79.160156 H 129.125 V 76.8125 h 1.83203 v 2.347656"
       style="fill:#383335;fill-opacity:1;fill-rule:nonzero;stroke:none" />
    <path
       id="path243"
       d="m 133.32812,79.160156 h -1.83203 V 76.8125 h 1.83203 v 2.347656"
       style="fill:#383335;fill-opacity:1;fill-rule:nonzero;stroke:none" />
    <path
       id="path245"
       d="m 135.69922,79.160156 h -1.83203 V 76.8125 h 1.83203 v 2.347656"
       style="fill:#383335;fill-opacity:1;fill-rule:nonzero;stroke:none" />
    <path
       id="path247"
       d="m 138.07031,79.160156 h -1.83594 V 76.8125 h 1.83594 v 2.347656"
       style="fill:#383335;fill-opacity:1;fill-rule:nonzero;stroke:none" />
    <g
       id="g251"
       style="fill:#000000;fill-opacity:1">
      <use
         height="100%"
         width="100%"
         id="use249"
         y="153.52277"
         x="33.797688"
         xlink:href="#glyph1-1" />
    </g>
    <g
       id="g255"
       style="fill:#000000;fill-opacity:1">
      <use
         height="100%"
         width="100%"
         id="use253"
         y="153.52277"
         x="41.848625"
         xlink:href="#glyph1-2" />
    </g>
    <g
       id="g259"
       style="fill:#000000;fill-opacity:1">
      <use
         height="100%"
         width="100%"
         id="use257"
         y="153.52277"
         x="46.730247"
         xlink:href="#glyph1-3" />
    </g>
    <g
       id="g263"
       style="fill:#000000;fill-opacity:1">
      <use
         height="100%"
         width="100%"
         id="use261"
         y="153.52277"
         x="53.677177"
         xlink:href="#glyph1-4" />
    </g>
    <g
       id="g267"
       style="fill:#000000;fill-opacity:1">
      <use
         height="100%"
         width="100%"
         id="use265"
         y="153.52277"
         x="60.736763"
         xlink:href="#glyph1-5" />
    </g>
    <g
       id="g271"
       style="fill:#000000;fill-opacity:1">
      <use
         height="100%"
         width="100%"
         id="use269"
         y="153.52277"
         x="69.073082"
         xlink:href="#glyph1-6" />
    </g>
    <g
       id="g275"
       style="fill:#000000;fill-opacity:1">
      <use
         height="100%"
         width="100%"
         id="use273"
         y="153.52277"
         x="75.449234"
         xlink:href="#glyph1-7" />
    </g>
    <g
       id="g279"
       style="fill:#000000;fill-opacity:1">
      <use
         height="100%"
         width="100%"
         id="use277"
         y="153.52277"
         x="81.900497"
         xlink:href="#glyph1-8" />
    </g>
    <g
       id="g283"
       style="fill:#000000;fill-opacity:1">
      <use
         height="100%"
         width="100%"
         id="use281"
         y="153.52277"
         x="88.41935"
         xlink:href="#glyph1-8" />
    </g>
    <g
       id="g287"
       style="fill:#000000;fill-opacity:1">
      <use
         height="100%"
         width="100%"
         id="use285"
         y="153.52277"
         x="94.938202"
         xlink:href="#glyph1-9" />
    </g>
    <g
       id="g291"
       style="fill:#000000;fill-opacity:1">
      <use
         height="100%"
         width="100%"
         id="use289"
         y="153.52277"
         x="99.121376"
         xlink:href="#glyph1-5" />
    </g>
    <g
       id="g295"
       style="fill:#000000;fill-opacity:1">
      <use
         height="100%"
         width="100%"
         id="use293"
         y="153.52277"
         x="107.4577"
         xlink:href="#glyph1-10" />
    </g>
    <g
       id="g299"
       style="fill:#000000;fill-opacity:1">
      <use
         height="100%"
         width="100%"
         id="use297"
         y="153.52277"
         x="114.93786"
         xlink:href="#glyph1-1" />
    </g>
    <g
       id="g303"
       style="fill:#000000;fill-opacity:1">
      <use
         height="100%"
         width="100%"
         id="use301"
         y="153.52277"
         x="122.9888"
         xlink:href="#glyph1-11" />
    </g>
    <g
       id="g307"
       style="fill:#000000;fill-opacity:1">
      <use
         height="100%"
         width="100%"
         id="use305"
         y="153.52277"
         x="129.27484"
         xlink:href="#glyph1-2" />
    </g>
    <g
       id="g311"
       style="fill:#000000;fill-opacity:1">
      <use
         height="100%"
         width="100%"
         id="use309"
         y="153.52277"
         x="134.15646"
         xlink:href="#glyph1-7" />
    </g>
    <g
       id="g315"
       style="fill:#000000;fill-opacity:1">
      <use
         height="100%"
         width="100%"
         id="use313"
         y="153.52277"
         x="140.60773"
         xlink:href="#glyph1-12" />
    </g>
    <g
       id="g319"
       style="fill:#000000;fill-opacity:1">
      <use
         height="100%"
         width="100%"
         id="use317"
         y="153.52277"
         x="148.14047"
         xlink:href="#glyph1-13" />
    </g>
    <g
       id="g323"
       style="fill:#000000;fill-opacity:1">
      <use
         height="100%"
         width="100%"
         id="use321"
         y="153.52277"
         x="155.73329"
         xlink:href="#glyph1-14" />
    </g>
    <g
       id="g327"
       style="fill:#000000;fill-opacity:1">
      <use
         height="100%"
         width="100%"
         id="use325"
         y="153.52277"
         x="163.19092"
         xlink:href="#glyph1-1" />
    </g>
    <g
       id="g331"
       style="fill:#000000;fill-opacity:1">
      <use
         height="100%"
         width="100%"
         id="use329"
         y="153.52277"
         x="171.24185"
         xlink:href="#glyph1-15" />
    </g>
    <g
       id="g335"
       style="fill:#000000;fill-opacity:1">
      <use
         height="100%"
         width="100%"
         id="use333"
         y="153.52277"
         x="177.92593"
         xlink:href="#glyph1-5" />
    </g>
    <g
       id="g339"
       style="fill:#000000;fill-opacity:1">
      <use
         height="100%"
         width="100%"
         id="use337"
         y="153.52277"
         x="186.26225"
         xlink:href="#glyph1-4" />
    </g>
  </g>
</svg>
